{
	"expo": {
		"name": "kikmoov",
		"description": "Kikmoov is a co-working finder for the next generation",
		"slug": "kikmoov",
		"privacy": "public",
		"sdkVersion": "32.0.0",
		"platforms": [
			"ios",
			"android"
		],
		"version": "1.0.0",
		"orientation": "portrait",
		"icon": "./assets/images/icon.png",
		"splash": {
			"image": "./assets/images/splash.png",
			"resizeMode": "cover"
		},
		"updates": {
			"fallbackToCacheTimeout": 0
		},
		"packagerOpts": {
			"config": "./metro.config.js"
		},
		"assetBundlePatterns": [
			"**/*"
		],
		"facebookAppId": "FACEBOOK_APP_ID",
		"facebookDisplayName": "Kikmoov",
		"facebookScheme": "FACEBOOK_SCHEME",
		"ios": {
			"supportsTablet": false,
			"bundleIdentifier": "com.kikmoovltd.kikmoov",
			"config": {
				"googleMapsApiKey": "GOOGLE_PLACES_API_KEY",
				"googleSignIn": {
					"reservedClientId": "GOOGLE_IOS_STANDALONE_APP_CLIENT_ID"
				}
			}
		},
		"androidStatusBar": {
			"backgroundColor": "#000000"
		},
		"android": {
			"package": "com.kikmoovltd.kikmoov",
			"config": {
				"googleSignIn": {
					"certificateHash": "GOOGLE_ANDROID_CERTIFICATE_HASH",
					"apiKey": "GOOGLE_ANDROID_SIGNIN_API_KEY"
				},
				"googleMaps": {
					"apiKey": "GOOGLE_MAPS_API_KEY"
				}
			}
		},
		"hooks": {
			"postPublish": [
				{
					"file": "sentry-expo/upload-sourcemaps",
					"config": {
						"organization": "bogdan-ivanov",
						"project": "kikmoov",
						"authToken": "SENTRY_AUTH_TOKEN"
					}
				}
			]
		}
	}
}